Interaction terms in MLR and Difference in Difference (DID)
…
Show the code

   dta %>% 
       mutate(
         development1 = development,
         development2 = development,
         development = development %>% forcats::fct_explicit_na()) %>% 
       mutate(
         development1_reverse = ifelse(is.na(development1), 1, 0),
         development1 = ifelse(is.na(development1), 0, as.character(development1)) %>%
           as.numeric()
       ) %>% 
     filter(is.na(development2))

# A tibble: 50 × 10
   acrePrice crpPct acres improvements development region     year  development1
       <dbl>  <dbl> <dbl>        <dbl> <fct>       <chr>      <fct>        <dbl>
 1       717      0   103           NA (Missing)   Northwest  2010             0
 2      3626      0   273           NA (Missing)   Central    2011             0
 3      4635      0    80           NA (Missing)   South Cen… 2011             0
 4      4883      0   200           NA (Missing)   South Cen… 2010             0
 5      4640      0    85           NA (Missing)   South Cen… 2010             0
 6      4513      0    40           NA (Missing)   South Cen… 2011             0
 7      4724      0    80           NA (Missing)   South Cen… 2011             0
 8      6298     57    79           NA (Missing)   South Cen… 2011             0
 9      8196      0    65           NA (Missing)   South Cen… 2011             0
10      4995      0    39           NA (Missing)   South Cen… 2011             0
# ℹ 40 more rows
# ℹ 2 more variables: development2 <fct>, development1_reverse <dbl>
…
