Panel Regression Analysis: Micro application to production function
…
Individual fixed effects (extraction 3)

Or, we can extract individual fixed effects with effect-specific standard errors:

fef_dta <- 
  fixef(rice_fe) %>% 
  summary() %>% 
  as.data.frame() %>% rownames_to_column("id") %>% 
  as_tibble() %>% 
  mutate(id = as.double(id))
fef_dta

# A tibble: 171 × 5
       id Estimate `Std. Error` `t-value` `Pr(>|t|)`
    <dbl>    <dbl>        <dbl>     <dbl>      <dbl>
 1 101001     3.85        0.317      12.2   1.96e-31
 2 101017     4.10        0.282      14.6   5.20e-43
 3 101026     4.24        0.285      14.9   1.09e-44
 4 101035     4.26        0.279      15.3   1.11e-46
 5 101056     4.56        0.285      16.0   9.02e-51
 6 101057     4.21        0.292      14.4   3.46e-42
 7 101067     4.26        0.296      14.4   2.89e-42
 8 101068     4.35        0.283      15.4   3.87e-47
 9 101069     4.36        0.279      15.6   1.62e-48
10 101073     4.06        0.294      13.8   3.35e-39
# ℹ 161 more rows
…
