Exploratory analysis of the RAND Health Insurance Experiment (HIE) data
…
?filter - type in the console to get help.

Filter sub samples with a specific insurance plan. Available insurance plans are:

“Any insurance”

“Catastrophic”

“Free”

Show the code

pre_dta %>% filter(plan == "Catastrophic")

# A tibble: 759 × 14
   id       plantype female non_white   age education_years income_family
   <chr>       <dbl>  <dbl>     <dbl> <dbl>           <dbl>         <dbl>
 1 KA100082        4      0         1    42              12        67486.
 2 KA100082        4      0        NA    16              NA        67486.
 3 KA100082        4      1        NA    14              NA        67486.
 4 KA100082        4      1         1    43              12        67486.
 5 KA100634        4      1         1    55              11        55216.
 6 KA100634        4      0         1    59               7        55216.
 7 KA100843        4      0        NA    15              NA        50989.
 8 KA100843        4      0         0    43              12        50989.
 9 KA100843        4      0        NA    14              NA        50989.
10 KA100843        4      1         0    43              12        50989.
# ℹ 749 more rows
# ℹ 7 more variables: hospitalization <dbl>, general_health_index <dbl>,
#   cholesterol <dbl>, blood_pressure <dbl>, mental_health_index <dbl>,
#   plan <chr>, plan_type_2 <dbl>

Filter individuals, where total family income is 10 000 or above.

Show the code

pre_dta %>% filter(income_family >  10000)

# A tibble: 4,391 × 14
   id       plantype female non_white   age education_years income_family
   <chr>       <dbl>  <dbl>     <dbl> <dbl>           <dbl>         <dbl>
 1 KA100082        4      0         1    42              12        67486.
 2 KA100082        4      0        NA    16              NA        67486.
 3 KA100082        4      1        NA    14              NA        67486.
 4 KA100082        4      1         1    43              12        67486.
 5 KA100547        1      1        NA    15              NA        24541.
 6 KA100547        1      1         1    60               9        24541.
 7 KA100547        1      1        NA    14              NA        24541.
 8 KA100547        1      0         1    59               4        24541.
 9 KA100571        1      0        NA    14              NA        34213.
10 KA100571        1      0         1    45               7        34213.
# ℹ 4,381 more rows
# ℹ 7 more variables: hospitalization <dbl>, general_health_index <dbl>,
#   cholesterol <dbl>, blood_pressure <dbl>, mental_health_index <dbl>,
#   plan <chr>, plan_type_2 <dbl>
…
Selecting data in R

Select any set of variables. For example:

Show the code

pre_dta %>% select(female, income_family, age, education_years)

# A tibble: 5,252 × 4
   female income_family   age education_years
    <dbl>         <dbl> <dbl>           <dbl>
 1      0        67486.    42              12
 2      0        67486.    16              NA
 3      1        67486.    14              NA
 4      1        67486.    43              12
 5      1        24541.    15              NA
 6      1        24541.    60               9
 7      1        24541.    14              NA
 8      0        24541.    59               4
 9      0        34213.    14              NA
10      0        34213.    45               7
# ℹ 5,242 more rows

One can specify what variables to drop:

Show the code

pre_dta %>% select(-plantype, plan_type_2, -id, -general_health_index)

# A tibble: 5,252 × 11
   female non_white   age education_years income_family hospitalization
    <dbl>     <dbl> <dbl>           <dbl>         <dbl>           <dbl>
 1      0         1    42              12        67486.               0
 2      0        NA    16              NA        67486.               0
 3      1        NA    14              NA        67486.               0
 4      1         1    43              12        67486.               0
 5      1        NA    15              NA        24541.               0
 6      1         1    60               9        24541.               0
 7      1        NA    14              NA        24541.               0
 8      0         1    59               4        24541.               0
 9      0        NA    14              NA        34213.               1
10      0         1    45               7        34213.               0
# ℹ 5,242 more rows
# ℹ 5 more variables: cholesterol <dbl>, blood_pressure <dbl>,
#   mental_health_index <dbl>, plan <chr>, plan_type_2 <dbl>

Combine selecting and filtering

Show the code

pre_dta %>% 
  filter(female == 1) %>% 
  select(income_family, age, education_years)

# A tibble: 2,797 × 3
   income_family   age education_years
           <dbl> <dbl>           <dbl>
 1        67486.    14              NA
 2        67486.    43              12
 3        24541.    15              NA
 4        24541.    60               9
 5        24541.    14              NA
 6        34213.    37              12
 7        55216.    55              11
 8        73313.    45              12
 9        50989.    43              12
10        39878.    54              10
# ℹ 2,787 more rows
…
